…
Morphometric measurements
-------------------------

Cleaning `morphometrics.csv` file for use and providing a useful function to retrieve columns from it

``` r
source('tidy_csv.R')

morph_df
```

    ## # A tibble: 1,479 × 7
    ##           diet   taxa                species individual   measure   pos
    ##          <chr>  <chr>                  <chr>      <chr>     <chr> <chr>
    ## 1   Omnivorous Rodent       Akodon montensis        Ak1 body mass  <NA>
    ## 2   Omnivorous Rodent       Akodon montensis        Ak2 body mass  <NA>
    ## 3   Omnivorous Rodent       Akodon montensis        Ak3 body mass  <NA>
    ## 4   Omnivorous Rodent       Akodon montensis        Ak4 body mass  <NA>
    ## 5  Herbivorous    Bat     Artibeus lituratus        Ar1 body mass  <NA>
    ## 6  Herbivorous    Bat     Artibeus lituratus        Ar2 body mass  <NA>
    ## 7  Herbivorous    Bat     Artibeus lituratus        Ar3 body mass  <NA>
    ## 8  Herbivorous    Bat Carollia perspicillata        Cp1 body mass  <NA>
    ## 9  Herbivorous    Bat Carollia perspicillata        Cp2 body mass  <NA>
    ## 10 Herbivorous    Bat Carollia perspicillata        Cp3 body mass  <NA>
    ## # ... with 1,469 more rows, and 1 more variables: value <dbl>
…
