…
Below is a data frame including whether or not to include `log_mass` as
a covariate. This determination was based on whether `log_mass` had a
significant effect when it was included in the model, where p-values
were based on parametric bootstrapping (see
[`docs/03-include_mass`](docs/03-include_mass.md)).

``` r
include_mass <- read_csv('output/include_mass_pos.csv', col_types = 'ccl')
include_mass
```

    ## # A tibble: 21 x 3
    ##    pos   y                       include
    ##    <chr> <chr>                   <lgl>  
    ##  1 prox  log_intestinal_diameter TRUE   
    ##  2 prox  log_villus_height       TRUE   
    ##  3 prox  villus_width            TRUE   
    ##  4 prox  crypt_width             FALSE  
    ##  5 prox  log_sef                 TRUE   
    ##  6 prox  enterocyte_diameter     FALSE  
    ##  7 prox  log_enterocyte_density  FALSE  
    ##  8 mid   log_intestinal_diameter TRUE   
    ##  9 mid   log_villus_height       TRUE   
    ## 10 mid   villus_width            FALSE  
    ## # … with 11 more rows
…
