…
Below are the column names for these parameters and all the segment types.

``` r
pos_ys <- c('log_intestinal_diameter', 'villus_height', 'villus_width', 
            'crypt_width', 'sef', 'enterocyte_diameter', 'log_enterocyte_density')
seg_types <- c('prox', 'med', 'dist')
```

Below is a data frame including whether or not to include `log_mass` as a covariate. This determination was based on whether `log_mass` had a significant effect when it was included in the model, where p-values were based on parametric bootstrapping (see `docs/include_mass.md`).

    ## # A tibble: 21 x 3
    ##      pos                       y include
    ##    <chr>                   <chr>   <lgl>
    ##  1  dist log_intestinal_diameter    TRUE
    ##  2  dist           villus_height    TRUE
    ##  3  dist            villus_width   FALSE
    ##  4  dist             crypt_width   FALSE
    ##  5  dist                     sef   FALSE
    ##  6  dist     enterocyte_diameter   FALSE
    ##  7  dist  log_enterocyte_density   FALSE
    ##  8   med log_intestinal_diameter    TRUE
    ##  9   med           villus_height    TRUE
    ## 10   med            villus_width   FALSE
    ## # ... with 11 more rows
…
